%YAML 1.1
%TAG !u! tag:unity3d.com,2011:
--- !u!21 &2100000
Material:
  serializedVersion: 6
  m_ObjectHideFlags: 0
  m_PrefabParentObject: {fileID: 0}
  m_PrefabInternal: {fileID: 0}
  m_Name: tmpuv
  m_Shader: {fileID: 4800000, guid: 74362029b3c73124bbdc5f2964a81f02, type: 3}
  m_ShaderKeywords: _TEX_ON _VCOLOR_ON
  m_LightmapFlags: 0
  m_EnableInstancingVariants: 0
  m_DoubleSidedGI: 0
  m_CustomRenderQueue: -1
  stringTagMap: {}
  disabledShaderPasses: []
  m_SavedProperties:
    serializedVersion: 3
    m_TexEnvs:
    - _Illum:
        m_Texture: {fileID: 0}
        m_Scale: {x: 1, y: 1}
        m_Offset: {x: 0, y: 0}
    - _MainTex:
        m_Texture: {fileID: 2800000, guid: 8cb6e8c6c570a834785e038942ad2589, type: 3}
        m_Scale: {x: 1, y: 1}
        m_Offset: {x: 0, y: 0}
    - _ToonShade:
        m_Texture: {fileID: 0}
        m_Scale: {x: 1, y: 1}
        m_Offset: {x: 0, y: 0}
    m_Floats:
    - _Brightness: 1
    - _DetailTex: 1
    - _Emission: 1
    - _EmissionLM: 0
    - _Outline: 0.1
    - _OutlineWidth: 1.04
    - _TintColor: 0
    - _VertexColor: 1
    m_Colors:
    - _Color: {r: 1, g: 1, b: 1, a: 1}
    - _OutlineColor: {r: 0, g: 0, b: 0, a: 1}
