%YAML 1.1
%TAG !u! tag:unity3d.com,2011:
--- !u!319 &101100000
AvatarMask:
  m_ObjectHideFlags: 0
  m_PrefabParentObject: {fileID: 0}
  m_PrefabInternal: {fileID: 0}
  m_Name: UpperBody
  m_Mask: 01000000010000000100000001000000010000000100000001000000010000000100000001000000010000000100000001000000
  m_Elements:
  - m_Path: 
    m_Weight: 1
  - m_Path: Bip01
    m_Weight: 0
  - m_Path: Bip01/Bip01 Footsteps
    m_Weight: 0
  - m_Path: Bip01/Bip01 Pelvis
    m_Weight: 0
  - m_Path: Bip01/Bip01 Pelvis/Bip01 Spine
    m_Weight: 0
  - m_Path: Bip01/Bip01 Pelvis/Bip01 Spine/Bip01 L Thigh
    m_Weight: 0
  - m_Path: Bip01/Bip01 Pelvis/Bip01 Spine/Bip01 L Thigh/Bip01 L Calf
    m_Weight: 0
  - m_Path: Bip01/Bip01 Pelvis/Bip01 Spine/Bip01 L Thigh/Bip01 L Calf/Bip01 L Foot
    m_Weight: 0
  - m_Path: Bip01/Bip01 Pelvis/Bip01 Spine/Bip01 L Thigh/Bip01 L Calf/Bip01 L Foot/Bip01
      L Toe0
    m_Weight: 0
  - m_Path: Bip01/Bip01 Pelvis/Bip01 Spine/Bip01 L Thigh/Bip01 L Calf/Bip01 L Foot/Bip01
      L Toe0/Bip01 L Toe01
    m_Weight: 0
  - m_Path: Bip01/Bip01 Pelvis/Bip01 Spine/Bip01 L Thigh/Bip01 L Calf/Bip01 L Foot/Bip01
      L Toe0/Bip01 L Toe01/Bip01 L Toe02
    m_Weight: 0
  - m_Path: Bip01/Bip01 Pelvis/Bip01 Spine/Bip01 L Thigh/Bip01 L Calf/Bip01 L Foot/Bip01
      L Toe0/Bip01 L Toe01/Bip01 L Toe02/Bip01 L Toe0Nub
    m_Weight: 0
  - m_Path: Bip01/Bip01 Pelvis/Bip01 Spine/Bip01 R Thigh
    m_Weight: 0
  - m_Path: Bip01/Bip01 Pelvis/Bip01 Spine/Bip01 R Thigh/Bip01 R Calf
    m_Weight: 0
  - m_Path: Bip01/Bip01 Pelvis/Bip01 Spine/Bip01 R Thigh/Bip01 R Calf/Bip01 R Foot
    m_Weight: 0
  - m_Path: Bip01/Bip01 Pelvis/Bip01 Spine/Bip01 R Thigh/Bip01 R Calf/Bip01 R Foot/Bip01
      R Toe0
    m_Weight: 0
  - m_Path: Bip01/Bip01 Pelvis/Bip01 Spine/Bip01 R Thigh/Bip01 R Calf/Bip01 R Foot/Bip01
      R Toe0/Bip01 R Toe01
    m_Weight: 0
  - m_Path: Bip01/Bip01 Pelvis/Bip01 Spine/Bip01 R Thigh/Bip01 R Calf/Bip01 R Foot/Bip01
      R Toe0/Bip01 R Toe01/Bip01 R Toe02
    m_Weight: 0
  - m_Path: Bip01/Bip01 Pelvis/Bip01 Spine/Bip01 R Thigh/Bip01 R Calf/Bip01 R Foot/Bip01
      R Toe0/Bip01 R Toe01/Bip01 R Toe02/Bip01 R Toe0Nub
    m_Weight: 0
  - m_Path: Bip01/Bip01 Pelvis/Bip01 Spine/Bip01 Spine1
    m_Weight: 1
  - m_Path: Bip01/Bip01 Pelvis/Bip01 Spine/Bip01 Spine1/Bip01 Spine2
    m_Weight: 1
  - m_Path: Bip01/Bip01 Pelvis/Bip01 Spine/Bip01 Spine1/Bip01 Spine2/Bip01 Neck
    m_Weight: 1
  - m_Path: Bip01/Bip01 Pelvis/Bip01 Spine/Bip01 Spine1/Bip01 Spine2/Bip01 Neck/Bip01
      Head
    m_Weight: 1
  - m_Path: Bip01/Bip01 Pelvis/Bip01 Spine/Bip01 Spine1/Bip01 Spine2/Bip01 Neck/Bip01
      Head/Bip01 HeadNub
    m_Weight: 1
  - m_Path: Bip01/Bip01 Pelvis/Bip01 Spine/Bip01 Spine1/Bip01 Spine2/Bip01 Neck/Bip01
      Head/Bone01
    m_Weight: 1
  - m_Path: Bip01/Bip01 Pelvis/Bip01 Spine/Bip01 Spine1/Bip01 Spine2/Bip01 Neck/Bip01
      Head/Bone01/Bone02
    m_Weight: 1
  - m_Path: Bip01/Bip01 Pelvis/Bip01 Spine/Bip01 Spine1/Bip01 Spine2/Bip01 Neck/Bip01
      Head/Bone01/Bone02/Bone03
    m_Weight: 1
  - m_Path: Bip01/Bip01 Pelvis/Bip01 Spine/Bip01 Spine1/Bip01 Spine2/Bip01 Neck/Bip01
      Head/Object02
    m_Weight: 1
  - m_Path: Bip01/Bip01 Pelvis/Bip01 Spine/Bip01 Spine1/Bip01 Spine2/Bip01 Neck/Bip01
      Head/Object06
    m_Weight: 1
  - m_Path: Bip01/Bip01 Pelvis/Bip01 Spine/Bip01 Spine1/Bip01 Spine2/Bip01 Neck/Bip01
      L Clavicle
    m_Weight: 1
  - m_Path: Bip01/Bip01 Pelvis/Bip01 Spine/Bip01 Spine1/Bip01 Spine2/Bip01 Neck/Bip01
      L Clavicle/Bip01 L UpperArm
    m_Weight: 1
  - m_Path: Bip01/Bip01 Pelvis/Bip01 Spine/Bip01 Spine1/Bip01 Spine2/Bip01 Neck/Bip01
      L Clavicle/Bip01 L UpperArm/Bip01 L Forearm
    m_Weight: 1
  - m_Path: Bip01/Bip01 Pelvis/Bip01 Spine/Bip01 Spine1/Bip01 Spine2/Bip01 Neck/Bip01
      L Clavicle/Bip01 L UpperArm/Bip01 L Forearm/Bip01 L Hand
    m_Weight: 1
  - m_Path: Bip01/Bip01 Pelvis/Bip01 Spine/Bip01 Spine1/Bip01 Spine2/Bip01 Neck/Bip01
      L Clavicle/Bip01 L UpperArm/Bip01 L Forearm/Bip01 L Hand/Bip01 L Finger0
    m_Weight: 1
  - m_Path: Bip01/Bip01 Pelvis/Bip01 Spine/Bip01 Spine1/Bip01 Spine2/Bip01 Neck/Bip01
      L Clavicle/Bip01 L UpperArm/Bip01 L Forearm/Bip01 L Hand/Bip01 L Finger0/Bip01
      L Finger01
    m_Weight: 1
  - m_Path: Bip01/Bip01 Pelvis/Bip01 Spine/Bip01 Spine1/Bip01 Spine2/Bip01 Neck/Bip01
      L Clavicle/Bip01 L UpperArm/Bip01 L Forearm/Bip01 L Hand/Bip01 L Finger0/Bip01
      L Finger01/Bip01 L Finger0Nub
    m_Weight: 1
  - m_Path: Bip01/Bip01 Pelvis/Bip01 Spine/Bip01 Spine1/Bip01 Spine2/Bip01 Neck/Bip01
      L Clavicle/Bip01 L UpperArm/Bip01 L Forearm/Bip01 L Hand/Bip01 L Finger1
    m_Weight: 1
  - m_Path: Bip01/Bip01 Pelvis/Bip01 Spine/Bip01 Spine1/Bip01 Spine2/Bip01 Neck/Bip01
      L Clavicle/Bip01 L UpperArm/Bip01 L Forearm/Bip01 L Hand/Bip01 L Finger1/Bip01
      L Finger11
    m_Weight: 1
  - m_Path: Bip01/Bip01 Pelvis/Bip01 Spine/Bip01 Spine1/Bip01 Spine2/Bip01 Neck/Bip01
      L Clavicle/Bip01 L UpperArm/Bip01 L Forearm/Bip01 L Hand/Bip01 L Finger1/Bip01
      L Finger11/Bip01 L Finger1Nub
    m_Weight: 1
  - m_Path: Bip01/Bip01 Pelvis/Bip01 Spine/Bip01 Spine1/Bip01 Spine2/Bip01 Neck/Bip01
      L Clavicle/Bip01 L UpperArm/Bip01 L Forearm/Bip01 L Hand/Bip01 L Finger2
    m_Weight: 1
  - m_Path: Bip01/Bip01 Pelvis/Bip01 Spine/Bip01 Spine1/Bip01 Spine2/Bip01 Neck/Bip01
      L Clavicle/Bip01 L UpperArm/Bip01 L Forearm/Bip01 L Hand/Bip01 L Finger2/Bip01
      L Finger21
    m_Weight: 1
  - m_Path: Bip01/Bip01 Pelvis/Bip01 Spine/Bip01 Spine1/Bip01 Spine2/Bip01 Neck/Bip01
      L Clavicle/Bip01 L UpperArm/Bip01 L Forearm/Bip01 L Hand/Bip01 L Finger2/Bip01
      L Finger21/Bip01 L Finger2Nub
    m_Weight: 1
  - m_Path: Bip01/Bip01 Pelvis/Bip01 Spine/Bip01 Spine1/Bip01 Spine2/Bip01 Neck/Bip01
      R Clavicle
    m_Weight: 1
  - m_Path: Bip01/Bip01 Pelvis/Bip01 Spine/Bip01 Spine1/Bip01 Spine2/Bip01 Neck/Bip01
      R Clavicle/Bip01 R UpperArm
    m_Weight: 1
  - m_Path: Bip01/Bip01 Pelvis/Bip01 Spine/Bip01 Spine1/Bip01 Spine2/Bip01 Neck/Bip01
      R Clavicle/Bip01 R UpperArm/Bip01 R Forearm
    m_Weight: 1
  - m_Path: Bip01/Bip01 Pelvis/Bip01 Spine/Bip01 Spine1/Bip01 Spine2/Bip01 Neck/Bip01
      R Clavicle/Bip01 R UpperArm/Bip01 R Forearm/Bip01 R Hand
    m_Weight: 1
  - m_Path: Bip01/Bip01 Pelvis/Bip01 Spine/Bip01 Spine1/Bip01 Spine2/Bip01 Neck/Bip01
      R Clavicle/Bip01 R UpperArm/Bip01 R Forearm/Bip01 R Hand/Bip01 R Finger0
    m_Weight: 1
  - m_Path: Bip01/Bip01 Pelvis/Bip01 Spine/Bip01 Spine1/Bip01 Spine2/Bip01 Neck/Bip01
      R Clavicle/Bip01 R UpperArm/Bip01 R Forearm/Bip01 R Hand/Bip01 R Finger0/Bip01
      R Finger01
    m_Weight: 1
  - m_Path: Bip01/Bip01 Pelvis/Bip01 Spine/Bip01 Spine1/Bip01 Spine2/Bip01 Neck/Bip01
      R Clavicle/Bip01 R UpperArm/Bip01 R Forearm/Bip01 R Hand/Bip01 R Finger0/Bip01
      R Finger01/Bip01 R Finger0Nub
    m_Weight: 1
  - m_Path: Bip01/Bip01 Pelvis/Bip01 Spine/Bip01 Spine1/Bip01 Spine2/Bip01 Neck/Bip01
      R Clavicle/Bip01 R UpperArm/Bip01 R Forearm/Bip01 R Hand/Bip01 R Finger1
    m_Weight: 1
  - m_Path: Bip01/Bip01 Pelvis/Bip01 Spine/Bip01 Spine1/Bip01 Spine2/Bip01 Neck/Bip01
      R Clavicle/Bip01 R UpperArm/Bip01 R Forearm/Bip01 R Hand/Bip01 R Finger1/Bip01
      R Finger11
    m_Weight: 1
  - m_Path: Bip01/Bip01 Pelvis/Bip01 Spine/Bip01 Spine1/Bip01 Spine2/Bip01 Neck/Bip01
      R Clavicle/Bip01 R UpperArm/Bip01 R Forearm/Bip01 R Hand/Bip01 R Finger1/Bip01
      R Finger11/Bip01 R Finger1Nub
    m_Weight: 1
  - m_Path: Bip01/Bip01 Pelvis/Bip01 Spine/Bip01 Spine1/Bip01 Spine2/Bip01 Neck/Bip01
      R Clavicle/Bip01 R UpperArm/Bip01 R Forearm/Bip01 R Hand/Bip01 R Finger2
    m_Weight: 1
  - m_Path: Bip01/Bip01 Pelvis/Bip01 Spine/Bip01 Spine1/Bip01 Spine2/Bip01 Neck/Bip01
      R Clavicle/Bip01 R UpperArm/Bip01 R Forearm/Bip01 R Hand/Bip01 R Finger2/Bip01
      R Finger21
    m_Weight: 1
  - m_Path: Bip01/Bip01 Pelvis/Bip01 Spine/Bip01 Spine1/Bip01 Spine2/Bip01 Neck/Bip01
      R Clavicle/Bip01 R UpperArm/Bip01 R Forearm/Bip01 R Hand/Bip01 R Finger2/Bip01
      R Finger21/Bip01 R Finger2Nub
    m_Weight: 1
  - m_Path: Bip01/Bip01 Pelvis/Bip01 Spine/Bip01 Spine1/Bip01 Spine2/Bip01 Neck/Bip01
      R Clavicle/Bip01 R UpperArm/Bip01 R Forearm/Bip01 R Hand/Rifle
    m_Weight: 0
  - m_Path: Bip01/Bip01 Pelvis/Bip01 Spine/Bip01 Spine1/Bip01 Spine2/Bip01 Neck/Bip01
      R Clavicle/Bip01 R UpperArm/Bip01 R Forearm/Bip01 R Hand/TMP
    m_Weight: 0
  - m_Path: Box01
    m_Weight: 0
  - m_Path: Sky01
    m_Weight: 0
