[IMAGE SETTINGS]
resolution				= (8,4)
encoding_scheme			= rectangular
[1D REGIONS]
RANGE_1D_X0			= (0,4)
RANGE_1D_X1			= (5,7)
RANGE_1D_Y0			= (0,3)
[2D REGIONS]
RANGE_2D_0			 = (RANGE_1D_X0,RANGE_1D_Y0)
RANGE_2D_1			 = (RANGE_1D_X1,RANGE_1D_Y0)
[GLOBAL VARIABLES]
[TRUTH VALUES]
GRIDVAL_0_0			= (haskey _iftwk3tu)
GRIDVAL_1_0			= (escaped _iftwk3tu)
[TRUTH VALUE MAPPINGS]
GRIDVAL_0_0			= true:255,false:0
GRIDVAL_1_0			= true:255,false:0
[NUMERIC VALUES]
[OBJECT VALUES]
[OBJECT VALUE MAPPINGS]
[2D REGION VALUES]
RANGE_2D_0			 = GRIDVAL_0_0
RANGE_2D_1			 = GRIDVAL_1_0
