%YAML 1.1
%TAG !u! tag:unity3d.com,2011:
--- !u!21 &2100000
Material:
  serializedVersion: 6
  m_ObjectHideFlags: 0
  m_CorrespondingSourceObject: {fileID: 0}
  m_PrefabInstance: {fileID: 0}
  m_PrefabAsset: {fileID: 0}
  m_Name: hair_tex
  m_Shader: {fileID: 4800000, guid: a3247f3e47cae4ea0bd0747a6bdd42e7, type: 3}
  m_ShaderKeywords: 
  m_LightmapFlags: 4
  m_EnableInstancingVariants: 0
  m_DoubleSidedGI: 0
  m_CustomRenderQueue: -1
  stringTagMap: {}
  disabledShaderPasses: []
  m_SavedProperties:
    serializedVersion: 3
    m_TexEnvs:
    - _ColorBase:
        m_Texture: {fileID: 2800000, guid: ecedb340f1f6c4852aa0606bd2a9932c, type: 3}
        m_Scale: {x: 1, y: 1}
        m_Offset: {x: 0, y: 0}
    - _InkSampler:
        m_Texture: {fileID: 2800000, guid: ecedb340f1f6c4852aa0606bd2a9932c, type: 3}
        m_Scale: {x: 1, y: 1}
        m_Offset: {x: 0, y: 0}
    - _MainTex:
        m_Texture: {fileID: 2800000, guid: bdca42d0d0a634dda96df9ab563bb581, type: 3}
        m_Scale: {x: 1, y: 1}
        m_Offset: {x: 0, y: 0}
    - _ShadowSampler:
        m_Texture: {fileID: 0}
        m_Scale: {x: 1, y: 1}
        m_Offset: {x: 0, y: 0}
    m_Floats:
    - _InkSize: 3
    m_Colors:
    - _Color: {r: 1, g: 1, b: 1, a: 1}
    - _InkColor: {r: 0.86567163, g: 0.47877526, b: 0.36823347, a: 1}
