%YAML 1.1
%TAG !u! tag:unity3d.com,2011:
--- !u!21 &2100000
Material:
  serializedVersion: 6
  m_ObjectHideFlags: 0
  m_CorrespondingSourceObject: {fileID: 0}
  m_PrefabInstance: {fileID: 0}
  m_PrefabAsset: {fileID: 0}
  m_Name: prop2uv2
  m_Shader: {fileID: 4800000, guid: 71016d6013ed77046b4e4bad599319eb, type: 3}
  m_ShaderKeywords: _TEX_ON
  m_LightmapFlags: 4
  m_EnableInstancingVariants: 0
  m_DoubleSidedGI: 0
  m_CustomRenderQueue: -1
  stringTagMap: {}
  disabledShaderPasses: []
  m_SavedProperties:
    serializedVersion: 3
    m_TexEnvs:
    - _Cube:
        m_Texture: {fileID: 8900000, guid: bf34826a02ae515468a4197915289281, type: 2}
        m_Scale: {x: 1, y: 1}
        m_Offset: {x: 0, y: 0}
    - _MainTex:
        m_Texture: {fileID: 2800000, guid: 72878b0a8b85e654e9c51289cc0612b1, type: 3}
        m_Scale: {x: 1, y: 1}
        m_Offset: {x: 0, y: 0}
    - _ToonShade:
        m_Texture: {fileID: 0}
        m_Scale: {x: 1, y: 1}
        m_Offset: {x: 0, y: 0}
    m_Floats:
    - _Brightness: 1
    - _DetailTex: 1
    - _LitOutline: 0.1
    - _Outline: 0.025
    - _OutlineWidth: 1.1
    - _OutlineX: 0
    - _OutlineY: 0
    - _OutlineZ: 0
    - _TintColor: 0
    - _UnlitOutline: 0.3
    - _VertexColor: 0
    m_Colors:
    - _Color: {r: 0.588, g: 0.588, b: 0.588, a: 1}
    - _Outline: {r: 0, g: 0, b: 0, a: 0.5}
    - _OutlineColor: {r: 0, g: 0, b: 0, a: 1}
    - _ReflectColor: {r: 0.6764706, g: 0.6764706, b: 0.6764706, a: 0.5019608}
    - _Specular: {r: 1, g: 1, b: 1, a: 0.5019608}
