%YAML 1.1
%TAG !u! tag:unity3d.com,2011:
--- !u!1 &100000
GameObject:
  m_ObjectHideFlags: 0
  m_PrefabParentObject: {fileID: 0}
  m_PrefabInternal: {fileID: 100100000}
  serializedVersion: 5
  m_Component:
  - component: {fileID: 400000}
  - component: {fileID: 114585192667993258}
  m_Layer: 0
  m_Name: SlowBullet
  m_TagString: Untagged
  m_Icon: {fileID: 0}
  m_NavMeshLayer: 0
  m_StaticEditorFlags: 0
  m_IsActive: 1
--- !u!4 &400000
Transform:
  m_ObjectHideFlags: 1
  m_PrefabParentObject: {fileID: 0}
  m_PrefabInternal: {fileID: 100100000}
  m_GameObject: {fileID: 100000}
  m_LocalRotation: {x: 0, y: 0, z: 0, w: 1}
  m_LocalPosition: {x: -1.3603339, y: 0.53823096, z: 26.182371}
  m_LocalScale: {x: 0.07646188, y: 0.07646189, z: 0.27844143}
  m_Children: []
  m_Father: {fileID: 0}
  m_RootOrder: 0
  m_LocalEulerAnglesHint: {x: 0, y: 0, z: 0}
--- !u!1001 &100100000
Prefab:
  m_ObjectHideFlags: 1
  serializedVersion: 2
  m_Modification:
    m_TransformParent: {fileID: 0}
    m_Modifications: []
    m_RemovedComponents: []
  m_ParentPrefab: {fileID: 0}
  m_RootGameObject: {fileID: 100000}
  m_IsPrefabParent: 1
--- !u!114 &114585192667993258
MonoBehaviour:
  m_ObjectHideFlags: 1
  m_PrefabParentObject: {fileID: 0}
  m_PrefabInternal: {fileID: 100100000}
  m_GameObject: {fileID: 100000}
  m_Enabled: 1
  m_EditorHideFlags: 0
  m_Script: {fileID: 11500000, guid: 684497c5a27533f44ab792407bb15893, type: 3}
  m_Name: 
  m_EditorClassIdentifier: 
  damage: 0
  damageMax: 5
  totalDamage: 0
  variance: 0
  shooterTag: Player
  shooter: {fileID: 0}
  Popup: {fileID: 400000, guid: 9c111e09ea654e9429b035717a79ad23, type: 2}
  hitEffect: {fileID: 100000, guid: 08038f05d197bbf4faaca2edc84b959a, type: 2}
  flinch: 0
  penetrate: 0
  ignoreGuard: 0
  AttackType: 0
  element: 0
  bombHitSetting:
    enable: 0
    bombEffect: {fileID: 0}
    bombRadius: 20
